^C:\USERS\HEPHAESTUS\DOCUMENTS\VISUAL STUDIO 2017\PROJECTS\STUDENTMANAGEMENTSYSTEM\STUDENTMANAGEMENTSYSTEM\DEBUG\BASICSOURCE.OBJ|C:\USERS\HEPHAESTUS\DOCUMENTS\VISUAL STUDIO 2017\PROJECTS\STUDENTMANAGEMENTSYSTEM\STUDENTMANAGEMENTSYSTEM\DEBUG\INFOSAVEANDLOAD.OBJ|C:\USERS\HEPHAESTUS\DOCUMENTS\VISUAL STUDIO 2017\PROJECTS\STUDENTMANAGEMENTSYSTEM\STUDENTMANAGEMENTSYSTEM\DEBUG\MAIN.OBJ|C:\USERS\HEPHAESTUS\DOCUMENTS\VISUAL STUDIO 2017\PROJECTS\STUDENTMANAGEMENTSYSTEM\STUDENTMANAGEMENTSYSTEM\DEBUG\SOURCE.OBJ|C:\USERS\HEPHAESTUS\DOCUMENTS\VISUAL STUDIO 2017\PROJECTS\STUDENTMANAGEMENTSYSTEM\STUDENTMANAGEMENTSYSTEM\DEBUG\USERUI.OBJ
C:\USERS\HEPHAESTUS\DOCUMENTS\VISUAL STUDIO 2017\PROJECTS\STUDENTMANAGEMENTSYSTEM\DEBUG\STUDENTMANAGEMENTSYSTEM.EXE
C:\USERS\HEPHAESTUS\DOCUMENTS\VISUAL STUDIO 2017\PROJECTS\STUDENTMANAGEMENTSYSTEM\DEBUG\STUDENTMANAGEMENTSYSTEM.ILK
C:\USERS\HEPHAESTUS\DOCUMENTS\VISUAL STUDIO 2017\PROJECTS\STUDENTMANAGEMENTSYSTEM\DEBUG\STUDENTMANAGEMENTSYSTEM.PDB
