^C:\USERS\HEPHAESTUS\DOCUMENTS\VISUAL STUDIO 2017\PROJECTS\STUDENTMANAGEMENTSYSTEM\STUDENTMANAGEMENTSYSTEM\X64\DEBUG\BASICSOURCE.OBJ|C:\USERS\HEPHAESTUS\DOCUMENTS\VISUAL STUDIO 2017\PROJECTS\STUDENTMANAGEMENTSYSTEM\STUDENTMANAGEMENTSYSTEM\X64\DEBUG\CLASSANDSTUDENT.OBJ|C:\USERS\HEPHAESTUS\DOCUMENTS\VISUAL STUDIO 2017\PROJECTS\STUDENTMANAGEMENTSYSTEM\STUDENTMANAGEMENTSYSTEM\X64\DEBUG\CLASSOPTION.OBJ|C:\USERS\HEPHAESTUS\DOCUMENTS\VISUAL STUDIO 2017\PROJECTS\STUDENTMANAGEMENTSYSTEM\STUDENTMANAGEMENTSYSTEM\X64\DEBUG\COURSES.OBJ|C:\USERS\HEPHAESTUS\DOCUMENTS\VISUAL STUDIO 2017\PROJECTS\STUDENTMANAGEMENTSYSTEM\STUDENTMANAGEMENTSYSTEM\X64\DEBUG\INFOSAVEANDLOAD.OBJ|C:\USERS\HEPHAESTUS\DOCUMENTS\VISUAL STUDIO 2017\PROJECTS\STUDENTMANAGEMENTSYSTEM\STUDENTMANAGEMENTSYSTEM\X64\DEBUG\MAIN.OBJ|C:\USERS\HEPHAESTUS\DOCUMENTS\VISUAL STUDIO 2017\PROJECTS\STUDENTMANAGEMENTSYSTEM\STUDENTMANAGEMENTSYSTEM\X64\DEBUG\SCHEDULE.OBJ|C:\USERS\HEPHAESTUS\DOCUMENTS\VISUAL STUDIO 2017\PROJECTS\STUDENTMANAGEMENTSYSTEM\STUDENTMANAGEMENTSYSTEM\X64\DEBUG\SOURCE.OBJ|C:\USERS\HEPHAESTUS\DOCUMENTS\VISUAL STUDIO 2017\PROJECTS\STUDENTMANAGEMENTSYSTEM\STUDENTMANAGEMENTSYSTEM\X64\DEBUG\SOURCEPROFILE.OBJ|C:\USERS\HEPHAESTUS\DOCUMENTS\VISUAL STUDIO 2017\PROJECTS\STUDENTMANAGEMENTSYSTEM\STUDENTMANAGEMENTSYSTEM\X64\DEBUG\SRUDENTSEARCHENGINE.OBJ|C:\USERS\HEPHAESTUS\DOCUMENTS\VISUAL STUDIO 2017\PROJECTS\STUDENTMANAGEMENTSYSTEM\STUDENTMANAGEMENTSYSTEM\X64\DEBUG\USERUI.OBJ
C:\PROGRAM FILES (X86)\WINDOWS KITS\10\LIB\10.0.15063.0\UM\X64\KERNEL32.LIB
C:\PROGRAM FILES (X86)\WINDOWS KITS\10\LIB\10.0.15063.0\UM\X64\USER32.LIB
C:\PROGRAM FILES (X86)\WINDOWS KITS\10\LIB\10.0.15063.0\UM\X64\GDI32.LIB
C:\PROGRAM FILES (X86)\WINDOWS KITS\10\LIB\10.0.15063.0\UM\X64\WINSPOOL.LIB
C:\PROGRAM FILES (X86)\WINDOWS KITS\10\LIB\10.0.15063.0\UM\X64\COMDLG32.LIB
C:\PROGRAM FILES (X86)\WINDOWS KITS\10\LIB\10.0.15063.0\UM\X64\ADVAPI32.LIB
C:\PROGRAM FILES (X86)\WINDOWS KITS\10\LIB\10.0.15063.0\UM\X64\SHELL32.LIB
C:\PROGRAM FILES (X86)\WINDOWS KITS\10\LIB\10.0.15063.0\UM\X64\OLE32.LIB
C:\PROGRAM FILES (X86)\WINDOWS KITS\10\LIB\10.0.15063.0\UM\X64\OLEAUT32.LIB
C:\PROGRAM FILES (X86)\WINDOWS KITS\10\LIB\10.0.15063.0\UM\X64\UUID.LIB
C:\PROGRAM FILES (X86)\WINDOWS KITS\10\LIB\10.0.15063.0\UM\X64\ODBC32.LIB
C:\PROGRAM FILES (X86)\WINDOWS KITS\10\LIB\10.0.15063.0\UM\X64\ODBCCP32.LIB
C:\USERS\HEPHAESTUS\DOCUMENTS\VISUAL STUDIO 2017\PROJECTS\STUDENTMANAGEMENTSYSTEM\STUDENTMANAGEMENTSYSTEM\X64\DEBUG\BASICSOURCE.OBJ
C:\USERS\HEPHAESTUS\DOCUMENTS\VISUAL STUDIO 2017\PROJECTS\STUDENTMANAGEMENTSYSTEM\STUDENTMANAGEMENTSYSTEM\X64\DEBUG\CLASSANDSTUDENT.OBJ
C:\USERS\HEPHAESTUS\DOCUMENTS\VISUAL STUDIO 2017\PROJECTS\STUDENTMANAGEMENTSYSTEM\STUDENTMANAGEMENTSYSTEM\X64\DEBUG\CLASSOPTION.OBJ
C:\USERS\HEPHAESTUS\DOCUMENTS\VISUAL STUDIO 2017\PROJECTS\STUDENTMANAGEMENTSYSTEM\STUDENTMANAGEMENTSYSTEM\X64\DEBUG\COURSES.OBJ
C:\USERS\HEPHAESTUS\DOCUMENTS\VISUAL STUDIO 2017\PROJECTS\STUDENTMANAGEMENTSYSTEM\STUDENTMANAGEMENTSYSTEM\X64\DEBUG\INFOSAVEANDLOAD.OBJ
C:\USERS\HEPHAESTUS\DOCUMENTS\VISUAL STUDIO 2017\PROJECTS\STUDENTMANAGEMENTSYSTEM\STUDENTMANAGEMENTSYSTEM\X64\DEBUG\MAIN.OBJ
C:\USERS\HEPHAESTUS\DOCUMENTS\VISUAL STUDIO 2017\PROJECTS\STUDENTMANAGEMENTSYSTEM\STUDENTMANAGEMENTSYSTEM\X64\DEBUG\SCHEDULE.OBJ
C:\USERS\HEPHAESTUS\DOCUMENTS\VISUAL STUDIO 2017\PROJECTS\STUDENTMANAGEMENTSYSTEM\STUDENTMANAGEMENTSYSTEM\X64\DEBUG\SOURCE.OBJ
C:\USERS\HEPHAESTUS\DOCUMENTS\VISUAL STUDIO 2017\PROJECTS\STUDENTMANAGEMENTSYSTEM\STUDENTMANAGEMENTSYSTEM\X64\DEBUG\SOURCEPROFILE.OBJ
C:\USERS\HEPHAESTUS\DOCUMENTS\VISUAL STUDIO 2017\PROJECTS\STUDENTMANAGEMENTSYSTEM\STUDENTMANAGEMENTSYSTEM\X64\DEBUG\SRUDENTSEARCHENGINE.OBJ
C:\USERS\HEPHAESTUS\DOCUMENTS\VISUAL STUDIO 2017\PROJECTS\STUDENTMANAGEMENTSYSTEM\STUDENTMANAGEMENTSYSTEM\X64\DEBUG\USERUI.OBJ
C:\WINDOWS\SYSTEM32\TZRES.DLL
C:\WINDOWS\GLOBALIZATION\SORTING\SORTDEFAULT.NLS
C:\PROGRAM FILES (X86)\MICROSOFT VISUAL STUDIO\2017\PROFESSIONAL\VC\TOOLS\MSVC\14.16.27023\LIB\X64\MSVCPRTD.LIB
C:\PROGRAM FILES (X86)\MICROSOFT VISUAL STUDIO\2017\PROFESSIONAL\VC\TOOLS\MSVC\14.16.27023\LIB\X64\MSVCRTD.LIB
C:\PROGRAM FILES (X86)\MICROSOFT VISUAL STUDIO\2017\PROFESSIONAL\VC\TOOLS\MSVC\14.16.27023\LIB\X64\OLDNAMES.LIB
C:\PROGRAM FILES (X86)\MICROSOFT VISUAL STUDIO\2017\PROFESSIONAL\VC\TOOLS\MSVC\14.16.27023\LIB\X64\VCRUNTIMED.LIB
C:\PROGRAM FILES (X86)\WINDOWS KITS\10\LIB\10.0.15063.0\UCRT\X64\UCRTD.LIB
C:\PROGRAM FILES (X86)\WINDOWS KITS\10\BIN\10.0.15063.0\X86\RC.EXE
C:\PROGRAM FILES (X86)\MICROSOFT VISUAL STUDIO\2017\PROFESSIONAL\VC\TOOLS\MSVC\14.16.27023\BIN\HOSTX86\X86\CVTRES.EXE
C:\PROGRAM FILES (X86)\MICROSOFT VISUAL STUDIO\2017\PROFESSIONAL\VC\TOOLS\MSVC\14.16.27023\BIN\HOSTX86\X86\MSPDBSRV.EXE
