1,1753134,Nguyen Ngoc Dang Khanh,0900000001,1753134@student.hcmus.edu.vn,1753134,1753134,17CLC2,

2,1753063,Cao Duy Khiem,0900000002,1753063@student.hcmus.edu.vn,1753063,1753063,17CLC3,

3,1753005,Bui Minh Khoa,0900000003,1753005@student.hcmus.edu.vn,1753005,1753005,APCS1,

4,1753064,Chu Bach Khoa,0900000004,1753064@student.hcmus.edu.vn,1753064,1753064,APCS2,

5,1753077,Bui Minh Nguyen,01657728803,1753077@student.hcmus.edu.vn,Bossofthisapp,hacker1999,ADMIN,
