^C:\USERS\HEPHAESTUS\DOCUMENTS\VISUAL STUDIO 2017\PROJECTS\STUDENTMANAGEMENTSYSTEM\ONLYFORTEST\X64\DEBUG\MAIN.OBJ|C:\USERS\HEPHAESTUS\DOCUMENTS\VISUAL STUDIO 2017\PROJECTS\STUDENTMANAGEMENTSYSTEM\ONLYFORTEST\X64\DEBUG\SOURCE.OBJ
C:\USERS\HEPHAESTUS\DOCUMENTS\VISUAL STUDIO 2017\PROJECTS\STUDENTMANAGEMENTSYSTEM\X64\DEBUG\ONLYFORTEST.ILK
C:\USERS\HEPHAESTUS\DOCUMENTS\VISUAL STUDIO 2017\PROJECTS\STUDENTMANAGEMENTSYSTEM\X64\DEBUG\ONLYFORTEST.EXE
C:\USERS\HEPHAESTUS\DOCUMENTS\VISUAL STUDIO 2017\PROJECTS\STUDENTMANAGEMENTSYSTEM\X64\DEBUG\ONLYFORTEST.PDB
